examples/block4_coreFFT/otros/tb_stage_ctrl.vcd
$date
	Mon Jun  1 15:54:17 2026
$end
$version
	Icarus Verilog
$end
$timescale
	1ps
$end
$scope module tb_stage_ctrl $end
$var wire 1 ! butterfly_done $end
$var wire 16 " z1_imag [15:0] $end
$var wire 16 # z1_real [15:0] $end
$var wire 16 $ z2_imag [15:0] $end
$var wire 16 % z2_real [15:0] $end
$var wire 1 & wr_en $end
$var wire 32 ' wr_data_z2 [31:0] $end
$var wire 32 ( wr_data_z1 [31:0] $end
$var wire 10 ) wr_addr_z2 [9:0] $end
$var wire 10 * wr_addr_z1 [9:0] $end
$var wire 10 + tw_addr_fft [9:0] $end
$var wire 1 , stage_done $end
$var wire 16 - o_real [15:0] $end
$var wire 16 . o_imag [15:0] $end
$var wire 16 / e_real [15:0] $end
$var wire 16 0 e_imag [15:0] $end
$var wire 1 1 butterfly_en $end
$var parameter 32 2 AW $end
$var parameter 32 3 CLK_PERIOD $end
$var parameter 32 4 DW $end
$var parameter 32 5 LN $end
$var parameter 32 6 N $end
$var reg 1 7 bf_done_q $end
$var reg 1 8 clk $end
$var reg 1 9 rst_n $end
$var reg 4 : stage [3:0] $end
$var reg 1 ; start $end
$var reg 32 < tw_data_reg [31:0] $end
$scope module dut $end
$var wire 1 ! butterfly_done $end
$var wire 1 8 clk $end
$var wire 32 = rd_data_e [31:0] $end
$var wire 32 > rd_data_o [31:0] $end
$var wire 1 9 rst_n $end
$var wire 4 ? stage [3:0] $end
$var wire 1 ; start $end
$var wire 32 @ tw_data_fft [31:0] $end
$var wire 16 A z1_imag [15:0] $end
$var wire 16 B z1_real [15:0] $end
$var wire 16 C z2_imag [15:0] $end
$var wire 16 D z2_real [15:0] $end
$var wire 10 E tw_addr_next [9:0] $end
$var wire 10 F stride [9:0] $end
$var wire 11 G num_groups [10:0] $end
$var wire 10 H group_size [9:0] $end
$var wire 10 I addr_o_next [9:0] $end
$var wire 10 J addr_e_next [9:0] $end
$var parameter 32 K ADDR_WIDTH $end
$var parameter 32 L DATA_WIDTH $end
$var parameter 32 M LOG2_N $end
$var parameter 32 N N_COMPLEX $end
$var parameter 2 O ST_IDLE $end
$var parameter 2 P ST_T $end
$var parameter 2 Q ST_T1 $end
$var parameter 2 R ST_T2 $end
$var reg 1 S active $end
$var reg 10 T addr_e_d1 [9:0] $end
$var reg 10 U addr_e_d2 [9:0] $end
$var reg 10 V addr_o_d1 [9:0] $end
$var reg 10 W addr_o_d2 [9:0] $end
$var reg 10 X bf [9:0] $end
$var reg 1 1 butterfly_en $end
$var reg 16 Y e_imag [15:0] $end
$var reg 16 Z e_real [15:0] $end
$var reg 10 [ grp [9:0] $end
$var reg 16 \ o_imag [15:0] $end
$var reg 16 ] o_real [15:0] $end
$var reg 10 ^ rd_addr_e [9:0] $end
$var reg 10 _ rd_addr_o [9:0] $end
$var reg 2 ` st [1:0] $end
$var reg 1 , stage_done $end
$var reg 10 a tw_addr_fft [9:0] $end
$var reg 1 b valid_d1 $end
$var reg 1 c valid_d2 $end
$var reg 10 d wr_addr_z1 [9:0] $end
$var reg 10 e wr_addr_z2 [9:0] $end
$var reg 32 f wr_data_z1 [31:0] $end
$var reg 32 g wr_data_z2 [31:0] $end
$var reg 1 & wr_en $end
$upscope $end
$upscope $end
$enddefinitions $end
$comment Show the parameter values. $end
$dumpall
b11 R
b10 Q
b1 P
b0 O
b10000000000 N
b1010 M
b10000 L
b1010 K
b10000000000 6
b1010 5
b10000 4
b10100 3
b1010 2
$end
#0
$dumpvars
bx g
bx f
bx e
bx d
0c
0b
bx a
b0 `
bx _
bx ^
bx ]
bx \
b0 [
bx Z
bx Y
b0 X
b0 W
b0 V
b0 U
b0 T
0S
b0 J
b1 I
b10 H
b1000000000 G
b1 F
b0 E
bz D
bz C
bz B
bz A
bx @
b0 ?
b0 >
b0 =
bx <
0;
b0 :
09
08
07
01
bx 0
bx /
bx .
bx -
0,
bx +
bx *
bx )
bx (
bx '
0&
bz %
bz $
bz #
bz "
0!
$end
#10000
b1111111111111110000000000000000 <
b1111111111111110000000000000000 @
18
#20000
08
#30000
18
#40000
08
#50000
18
#60000
08
#70000
18
#80000
08
#90000
b1 V
19
18
#100000
08
#110000
b1 W
18
#120000
08
#130000
18
#140000
08
#150000
18
#160000
08
#170000
18
#180000
08
#190000
b1 `
1S
1;
18
#200000
08
#210000
b10 `
b1 _
b0 ^
b0 +
b0 a
1b
0;
18
#220000
08
#230000
b11 `
11
b0 .
b0 \
b0 -
b0 ]
b0 0
b0 Y
b0 /
b0 Z
1c
0b
18
#240000
08
#250000
1!
17
b1 `
b11 I
b10 J
b1 [
1&
b1 )
b1 e
b0 *
b0 d
bz '
bz g
bz (
bz f
0c
01
18
#260000
08
#270000
b10 `
b11 _
b10 ^
1b
b11 V
b10 T
0&
0!
07
18
#280000
08
#290000
b11 `
11
1c
0b
b11 W
b10 U
18
#300000
08
#310000
b1 `
b101 I
b100 J
b10 [
1&
b11 )
b11 e
b10 *
b10 d
0c
01
1!
17
18
#320000
08
#330000
0!
07
b10 `
b101 _
b100 ^
1b
b101 V
b100 T
0&
18
#340000
08
#350000
b11 `
11
1c
0b
b101 W
b100 U
18
#360000
08
#370000
1!
17
b1 `
b111 I
b110 J
b11 [
1&
b101 )
b101 e
b100 *
b100 d
0c
01
18
#380000
08
#390000
b10 `
b111 _
b110 ^
1b
b111 V
b110 T
0&
0!
07
18
#400000
08
#410000
b11 `
11
1c
0b
b111 W
b110 U
18
#420000
08
#430000
b1 `
b1001 I
b1000 J
b100 [
1&
b111 )
b111 e
b110 *
b110 d
0c
01
1!
17
18
#440000
08
#450000
0!
07
b10 `
b1001 _
b1000 ^
1b
b1001 V
b1000 T
0&
18
#460000
08
#470000
b11 `
11
1c
0b
b1001 W
b1000 U
18
#480000
08
#490000
1!
17
b1 `
b1011 I
b1010 J
b101 [
1&
b1001 )
b1001 e
b1000 *
b1000 d
0c
01
18
#500000
08
#510000
b10 `
b1011 _
b1010 ^
1b
b1011 V
b1010 T
0&
0!
07
18
#520000
08
#530000
b11 `
11
1c
0b
b1011 W
b1010 U
18
#540000
08
#550000
b1 `
b1101 I
b1100 J
b110 [
1&
b1011 )
b1011 e
b1010 *
b1010 d
0c
01
1!
17
18
#560000
08
#570000
0!
07
b10 `
b1101 _
b1100 ^
1b
b1101 V
b1100 T
0&
18
#580000
08
#590000
b11 `
11
1c
0b
b1101 W
b1100 U
18
#600000
08
#610000
1!
17
b1 `
b1111 I
b1110 J
b111 [
1&
b1101 )
b1101 e
b1100 *
b1100 d
0c
01
18
#620000
08
#630000
b10 `
b1111 _
b1110 ^
1b
b1111 V
b1110 T
0&
0!
07
18
#640000
08
#650000
b11 `
11
1c
0b
b1111 W
b1110 U
18
#660000
08
#670000
b1 `
b10001 I
b10000 J
b1000 [
1&
b1111 )
b1111 e
b1110 *
b1110 d
0c
01
1!
17
18
#680000
08
#690000
0!
07
b10 `
b10001 _
b10000 ^
1b
b10001 V
b10000 T
0&
18
#700000
08
#710000
b11 `
11
1c
0b
b10001 W
b10000 U
18
#720000
08
#730000
1!
17
b1 `
b10011 I
b10010 J
b1001 [
1&
b10001 )
b10001 e
b10000 *
b10000 d
0c
01
18
#740000
08
#750000
b10 `
b10011 _
b10010 ^
1b
b10011 V
b10010 T
0&
0!
07
18
#760000
08
#770000
b11 `
11
1c
0b
b10011 W
b10010 U
18
#780000
08
#790000
b1 `
b10101 I
b10100 J
b1010 [
1&
b10011 )
b10011 e
b10010 *
b10010 d
0c
01
1!
17
18
#800000
08
#810000
0!
07
b10 `
b10101 _
b10100 ^
1b
b10101 V
b10100 T
0&
18
#820000
08
#830000
b11 `
11
1c
0b
b10101 W
b10100 U
18
#840000
08
#850000
1!
17
b1 `
b10111 I
b10110 J
b1011 [
1&
b10101 )
b10101 e
b10100 *
b10100 d
0c
01
18
#860000
08
#870000
b10 `
b10111 _
b10110 ^
1b
b10111 V
b10110 T
0&
0!
07
18
#880000
08
#890000
b11 `
11
1c
0b
b10111 W
b10110 U
18
#900000
08
#910000
b1 `
b11001 I
b11000 J
b1100 [
1&
b10111 )
b10111 e
b10110 *
b10110 d
0c
01
1!
17
18
#920000
08
#930000
0!
07
b10 `
b11001 _
b11000 ^
1b
b11001 V
b11000 T
0&
18
#940000
08
#950000
b11 `
11
1c
0b
b11001 W
b11000 U
18
#960000
08
#970000
1!
17
b1 `
b11011 I
b11010 J
b1101 [
1&
b11001 )
b11001 e
b11000 *
b11000 d
0c
01
18
#980000
08
#990000
b10 `
b11011 _
b11010 ^
1b
b11011 V
b11010 T
0&
0!
07
18
#1000000
08
#1010000
b11 `
11
1c
0b
b11011 W
b11010 U
18
#1020000
08
#1030000
b1 `
b11101 I
b11100 J
b1110 [
1&
b11011 )
b11011 e
b11010 *
b11010 d
0c
01
1!
17
18
#1040000
08
#1050000
0!
07
b10 `
b11101 _
b11100 ^
1b
b11101 V
b11100 T
0&
18
#1060000
08
#1070000
b11 `
11
1c
0b
b11101 W
b11100 U
18
#1080000
08
#1090000
1!
17
b1 `
b11111 I
b11110 J
b1111 [
1&
b11101 )
b11101 e
b11100 *
b11100 d
0c
01
18
#1100000
08
#1110000
b10 `
b11111 _
b11110 ^
1b
b11111 V
b11110 T
0&
0!
07
18
#1120000
08
#1130000
b11 `
11
1c
0b
b11111 W
b11110 U
18
#1140000
08
#1150000
b1 `
b100001 I
b100000 J
b10000 [
1&
b11111 )
b11111 e
b11110 *
b11110 d
0c
01
1!
17
18
#1160000
08
#1170000
0!
07
b10 `
b100001 _
b100000 ^
1b
b100001 V
b100000 T
0&
18
#1180000
08
#1190000
b11 `
11
1c
0b
b100001 W
b100000 U
18
#1200000
08
#1210000
1!
17
b1 `
b100011 I
b100010 J
b10001 [
1&
b100001 )
b100001 e
b100000 *
b100000 d
0c
01
18
#1220000
08
#1230000
b10 `
b100011 _
b100010 ^
1b
b100011 V
b100010 T
0&
0!
07
18
#1240000
08
#1250000
b11 `
11
1c
0b
b100011 W
b100010 U
18
#1260000
08
#1270000
b1 `
b100101 I
b100100 J
b10010 [
1&
b100011 )
b100011 e
b100010 *
b100010 d
0c
01
1!
17
18
#1280000
08
#1290000
0!
07
b10 `
b100101 _
b100100 ^
1b
b100101 V
b100100 T
0&
18
#1300000
08
#1310000
b11 `
11
1c
0b
b100101 W
b100100 U
18
#1320000
08
#1330000
1!
17
b1 `
b100111 I
b100110 J
b10011 [
1&
b100101 )
b100101 e
b100100 *
b100100 d
0c
01
18
#1340000
08
#1350000
b10 `
b100111 _
b100110 ^
1b
b100111 V
b100110 T
0&
0!
07
18
#1360000
08
#1370000
b11 `
11
1c
0b
b100111 W
b100110 U
18
#1380000
08
#1390000
b1 `
b101001 I
b101000 J
b10100 [
1&
b100111 )
b100111 e
b100110 *
b100110 d
0c
01
1!
17
18
#1400000
08
#1410000
0!
07
b10 `
b101001 _
b101000 ^
1b
b101001 V
b101000 T
0&
18
#1420000
08
#1430000
b11 `
11
1c
0b
b101001 W
b101000 U
18
#1440000
08
#1450000
1!
17
b1 `
b101011 I
b101010 J
b10101 [
1&
b101001 )
b101001 e
b101000 *
b101000 d
0c
01
18
#1460000
08
#1470000
b10 `
b101011 _
b101010 ^
1b
b101011 V
b101010 T
0&
0!
07
18
#1480000
08
#1490000
b11 `
11
1c
0b
b101011 W
b101010 U
18
#1500000
08
#1510000
b1 `
b101101 I
b101100 J
b10110 [
1&
b101011 )
b101011 e
b101010 *
b101010 d
0c
01
1!
17
18
#1520000
08
#1530000
0!
07
b10 `
b101101 _
b101100 ^
1b
b101101 V
b101100 T
0&
18
#1540000
08
#1550000
b11 `
11
1c
0b
b101101 W
b101100 U
18
#1560000
08
#1570000
1!
17
b1 `
b101111 I
b101110 J
b10111 [
1&
b101101 )
b101101 e
b101100 *
b101100 d
0c
01
18
#1580000
08
#1590000
b10 `
b101111 _
b101110 ^
1b
b101111 V
b101110 T
0&
0!
07
18
#1600000
08
#1610000
b11 `
11
1c
0b
b101111 W
b101110 U
18
#1620000
08
#1630000
b1 `
b110001 I
b110000 J
b11000 [
1&
b101111 )
b101111 e
b101110 *
b101110 d
0c
01
1!
17
18
#1640000
08
#1650000
0!
07
b10 `
b110001 _
b110000 ^
1b
b110001 V
b110000 T
0&
18
#1660000
08
#1670000
b11 `
11
1c
0b
b110001 W
b110000 U
18
#1680000
08
#1690000
1!
17
b1 `
b110011 I
b110010 J
b11001 [
1&
b110001 )
b110001 e
b110000 *
b110000 d
0c
01
18
#1700000
08
#1710000
b10 `
b110011 _
b110010 ^
1b
b110011 V
b110010 T
0&
0!
07
18
#1720000
08
#1730000
b11 `
11
1c
0b
b110011 W
b110010 U
18
#1740000
08
#1750000
b1 `
b110101 I
b110100 J
b11010 [
1&
b110011 )
b110011 e
b110010 *
b110010 d
0c
01
1!
17
18
#1760000
08
#1770000
0!
07
b10 `
b110101 _
b110100 ^
1b
b110101 V
b110100 T
0&
18
#1780000
08
#1790000
b11 `
11
1c
0b
b110101 W
b110100 U
18
#1800000
08
#1810000
1!
17
b1 `
b110111 I
b110110 J
b11011 [
1&
b110101 )
b110101 e
b110100 *
b110100 d
0c
01
18
#1820000
08
#1830000
b10 `
b110111 _
b110110 ^
1b
b110111 V
b110110 T
0&
0!
07
18
#1840000
08
#1850000
b11 `
11
1c
0b
b110111 W
b110110 U
18
#1860000
08
#1870000
b1 `
b111001 I
b111000 J
b11100 [
1&
b110111 )
b110111 e
b110110 *
b110110 d
0c
01
1!
17
18
#1880000
08
#1890000
0!
07
b10 `
b111001 _
b111000 ^
1b
b111001 V
b111000 T
0&
18
#1900000
08
#1910000
b11 `
11
1c
0b
b111001 W
b111000 U
18
#1920000
08
#1930000
1!
17
b1 `
b111011 I
b111010 J
b11101 [
1&
b111001 )
b111001 e
b111000 *
b111000 d
0c
01
18
#1940000
08
#1950000
b10 `
b111011 _
b111010 ^
1b
b111011 V
b111010 T
0&
0!
07
18
#1960000
08
#1970000
b11 `
11
1c
0b
b111011 W
b111010 U
18
#1980000
08
#1990000
b1 `
b111101 I
b111100 J
b11110 [
1&
b111011 )
b111011 e
b111010 *
b111010 d
0c
01
1!
17
18
#2000000
08
#2010000
0!
07
b10 `
b111101 _
b111100 ^
1b
b111101 V
b111100 T
0&
18
#2020000
08
#2030000
b11 `
11
1c
0b
b111101 W
b111100 U
18
#2040000
08
#2050000
1!
17
b1 `
b111111 I
b111110 J
b11111 [
1&
b111101 )
b111101 e
b111100 *
b111100 d
0c
01
18
#2060000
08
#2070000
b10 `
b111111 _
b111110 ^
1b
b111111 V
b111110 T
0&
0!
07
18
#2080000
08
#2090000
b11 `
11
1c
0b
b111111 W
b111110 U
18
#2100000
08
#2110000
b1 `
b1000001 I
b1000000 J
b100000 [
1&
b111111 )
b111111 e
b111110 *
b111110 d
0c
01
1!
17
18
#2120000
08
#2130000
0!
07
b10 `
b1000001 _
b1000000 ^
1b
b1000001 V
b1000000 T
0&
18
#2140000
08
#2150000
b11 `
11
1c
0b
b1000001 W
b1000000 U
18
#2160000
08
#2170000
1!
17
b1 `
b1000011 I
b1000010 J
b100001 [
1&
b1000001 )
b1000001 e
b1000000 *
b1000000 d
0c
01
18
#2180000
08
#2190000
b10 `
b1000011 _
b1000010 ^
1b
b1000011 V
b1000010 T
0&
0!
07
18
#2200000
08
#2210000
b11 `
11
1c
0b
b1000011 W
b1000010 U
18
#2220000
08
#2230000
b1 `
b1000101 I
b1000100 J
b100010 [
1&
b1000011 )
b1000011 e
b1000010 *
b1000010 d
0c
01
1!
17
18
#2240000
08
#2250000
0!
07
b10 `
b1000101 _
b1000100 ^
1b
b1000101 V
b1000100 T
0&
18
#2260000
08
#2270000
b11 `
11
1c
0b
b1000101 W
b1000100 U
18
#2280000
08
#2290000
1!
17
b1 `
b1000111 I
b1000110 J
b100011 [
1&
b1000101 )
b1000101 e
b1000100 *
b1000100 d
0c
01
18
#2300000
08
#2310000
b10 `
b1000111 _
b1000110 ^
1b
b1000111 V
b1000110 T
0&
0!
07
18
#2320000
08
#2330000
b11 `
11
1c
0b
b1000111 W
b1000110 U
18
#2340000
08
#2350000
b1 `
b1001001 I
b1001000 J
b100100 [
1&
b1000111 )
b1000111 e
b1000110 *
b1000110 d
0c
01
1!
17
18
#2360000
08
#2370000
0!
07
b10 `
b1001001 _
b1001000 ^
1b
b1001001 V
b1001000 T
0&
18
#2380000
08
#2390000
b11 `
11
1c
0b
b1001001 W
b1001000 U
18
#2400000
08
#2410000
1!
17
b1 `
b1001011 I
b1001010 J
b100101 [
1&
b1001001 )
b1001001 e
b1001000 *
b1001000 d
0c
01
18
#2420000
08
#2430000
b10 `
b1001011 _
b1001010 ^
1b
b1001011 V
b1001010 T
0&
0!
07
18
#2440000
08
#2450000
b11 `
11
1c
0b
b1001011 W
b1001010 U
18
#2460000
08
#2470000
b1 `
b1001101 I
b1001100 J
b100110 [
1&
b1001011 )
b1001011 e
b1001010 *
b1001010 d
0c
01
1!
17
18
#2480000
08
#2490000
0!
07
b10 `
b1001101 _
b1001100 ^
1b
b1001101 V
b1001100 T
0&
18
#2500000
08
#2510000
b11 `
11
1c
0b
b1001101 W
b1001100 U
18
#2520000
08
#2530000
1!
17
b1 `
b1001111 I
b1001110 J
b100111 [
1&
b1001101 )
b1001101 e
b1001100 *
b1001100 d
0c
01
18
#2540000
08
#2550000
b10 `
b1001111 _
b1001110 ^
1b
b1001111 V
b1001110 T
0&
0!
07
18
#2560000
08
#2570000
b11 `
11
1c
0b
b1001111 W
b1001110 U
18
#2580000
08
#2590000
b1 `
b1010001 I
b1010000 J
b101000 [
1&
b1001111 )
b1001111 e
b1001110 *
b1001110 d
0c
01
1!
17
18
#2600000
08
#2610000
0!
07
b10 `
b1010001 _
b1010000 ^
1b
b1010001 V
b1010000 T
0&
18
#2620000
08
#2630000
b11 `
11
1c
0b
b1010001 W
b1010000 U
18
#2640000
08
#2650000
1!
17
b1 `
b1010011 I
b1010010 J
b101001 [
1&
b1010001 )
b1010001 e
b1010000 *
b1010000 d
0c
01
18
#2660000
08
#2670000
b10 `
b1010011 _
b1010010 ^
1b
b1010011 V
b1010010 T
0&
0!
07
18
#2680000
08
#2690000
b11 `
11
1c
0b
b1010011 W
b1010010 U
18
#2700000
08
#2710000
b1 `
b1010101 I
b1010100 J
b101010 [
1&
b1010011 )
b1010011 e
b1010010 *
b1010010 d
0c
01
1!
17
18
#2720000
08
#2730000
0!
07
b10 `
b1010101 _
b1010100 ^
1b
b1010101 V
b1010100 T
0&
18
#2740000
08
#2750000
b11 `
11
1c
0b
b1010101 W
b1010100 U
18
#2760000
08
#2770000
1!
17
b1 `
b1010111 I
b1010110 J
b101011 [
1&
b1010101 )
b1010101 e
b1010100 *
b1010100 d
0c
01
18
#2780000
08
#2790000
b10 `
b1010111 _
b1010110 ^
1b
b1010111 V
b1010110 T
0&
0!
07
18
#2800000
08
#2810000
b11 `
11
1c
0b
b1010111 W
b1010110 U
18
#2820000
08
#2830000
b1 `
b1011001 I
b1011000 J
b101100 [
1&
b1010111 )
b1010111 e
b1010110 *
b1010110 d
0c
01
1!
17
18
#2840000
08
#2850000
0!
07
b10 `
b1011001 _
b1011000 ^
1b
b1011001 V
b1011000 T
0&
18
#2860000
08
#2870000
b11 `
11
1c
0b
b1011001 W
b1011000 U
18
#2880000
08
#2890000
1!
17
b1 `
b1011011 I
b1011010 J
b101101 [
1&
b1011001 )
b1011001 e
b1011000 *
b1011000 d
0c
01
18
#2900000
08
#2910000
b10 `
b1011011 _
b1011010 ^
1b
b1011011 V
b1011010 T
0&
0!
07
18
#2920000
08
#2930000
b11 `
11
1c
0b
b1011011 W
b1011010 U
18
#2940000
08
#2950000
b1 `
b1011101 I
b1011100 J
b101110 [
1&
b1011011 )
b1011011 e
b1011010 *
b1011010 d
0c
01
1!
17
18
#2960000
08
#2970000
0!
07
b10 `
b1011101 _
b1011100 ^
1b
b1011101 V
b1011100 T
0&
18
#2980000
08
#2990000
b11 `
11
1c
0b
b1011101 W
b1011100 U
18
#3000000
08
#3010000
1!
17
b1 `
b1011111 I
b1011110 J
b101111 [
1&
b1011101 )
b1011101 e
b1011100 *
b1011100 d
0c
01
18
#3020000
08
#3030000
b10 `
b1011111 _
b1011110 ^
1b
b1011111 V
b1011110 T
0&
0!
07
18
#3040000
08
#3050000
b11 `
11
1c
0b
b1011111 W
b1011110 U
18
#3060000
08
#3070000
b1 `
b1100001 I
b1100000 J
b110000 [
1&
b1011111 )
b1011111 e
b1011110 *
b1011110 d
0c
01
1!
17
18
#3080000
08
#3090000
0!
07
b10 `
b1100001 _
b1100000 ^
1b
b1100001 V
b1100000 T
0&
18
#3100000
08
#3110000
b11 `
11
1c
0b
b1100001 W
b1100000 U
18
#3120000
08
#3130000
1!
17
b1 `
b1100011 I
b1100010 J
b110001 [
1&
b1100001 )
b1100001 e
b1100000 *
b1100000 d
0c
01
18
#3140000
08
#3150000
b10 `
b1100011 _
b1100010 ^
1b
b1100011 V
b1100010 T
0&
0!
07
18
#3160000
08
#3170000
b11 `
11
1c
0b
b1100011 W
b1100010 U
18
#3180000
08
#3190000
b1 `
b1100101 I
b1100100 J
b110010 [
1&
b1100011 )
b1100011 e
b1100010 *
b1100010 d
0c
01
1!
17
18
#3200000
08
#3210000
0!
07
b10 `
b1100101 _
b1100100 ^
1b
b1100101 V
b1100100 T
0&
18
#3220000
08
#3230000
b11 `
11
1c
0b
b1100101 W
b1100100 U
18
#3240000
08
#3250000
1!
17
b1 `
b1100111 I
b1100110 J
b110011 [
1&
b1100101 )
b1100101 e
b1100100 *
b1100100 d
0c
01
18
#3260000
08
#3270000
b10 `
b1100111 _
b1100110 ^
1b
b1100111 V
b1100110 T
0&
0!
07
18
#3280000
08
#3290000
b11 `
11
1c
0b
b1100111 W
b1100110 U
18
#3300000
08
#3310000
b1 `
b1101001 I
b1101000 J
b110100 [
1&
b1100111 )
b1100111 e
b1100110 *
b1100110 d
0c
01
1!
17
18
#3320000
08
#3330000
0!
07
b10 `
b1101001 _
b1101000 ^
1b
b1101001 V
b1101000 T
0&
18
#3340000
08
#3350000
b11 `
11
1c
0b
b1101001 W
b1101000 U
18
#3360000
08
#3370000
1!
17
b1 `
b1101011 I
b1101010 J
b110101 [
1&
b1101001 )
b1101001 e
b1101000 *
b1101000 d
0c
01
18
#3380000
08
#3390000
b10 `
b1101011 _
b1101010 ^
1b
b1101011 V
b1101010 T
0&
0!
07
18
#3400000
08
#3410000
b11 `
11
1c
0b
b1101011 W
b1101010 U
18
#3420000
08
#3430000
b1 `
b1101101 I
b1101100 J
b110110 [
1&
b1101011 )
b1101011 e
b1101010 *
b1101010 d
0c
01
1!
17
18
#3440000
08
#3450000
0!
07
b10 `
b1101101 _
b1101100 ^
1b
b1101101 V
b1101100 T
0&
18
#3460000
08
#3470000
b11 `
11
1c
0b
b1101101 W
b1101100 U
18
#3480000
08
#3490000
1!
17
b1 `
b1101111 I
b1101110 J
b110111 [
1&
b1101101 )
b1101101 e
b1101100 *
b1101100 d
0c
01
18
#3500000
08
#3510000
b10 `
b1101111 _
b1101110 ^
1b
b1101111 V
b1101110 T
0&
0!
07
18
#3520000
08
#3530000
b11 `
11
1c
0b
b1101111 W
b1101110 U
18
#3540000
08
#3550000
b1 `
b1110001 I
b1110000 J
b111000 [
1&
b1101111 )
b1101111 e
b1101110 *
b1101110 d
0c
01
1!
17
18
#3560000
08
#3570000
0!
07
b10 `
b1110001 _
b1110000 ^
1b
b1110001 V
b1110000 T
0&
18
#3580000
08
#3590000
b11 `
11
1c
0b
b1110001 W
b1110000 U
18
#3600000
08
#3610000
1!
17
b1 `
b1110011 I
b1110010 J
b111001 [
1&
b1110001 )
b1110001 e
b1110000 *
b1110000 d
0c
01
18
#3620000
08
#3630000
b10 `
b1110011 _
b1110010 ^
1b
b1110011 V
b1110010 T
0&
0!
07
18
#3640000
08
#3650000
b11 `
11
1c
0b
b1110011 W
b1110010 U
18
#3660000
08
#3670000
b1 `
b1110101 I
b1110100 J
b111010 [
1&
b1110011 )
b1110011 e
b1110010 *
b1110010 d
0c
01
1!
17
18
#3680000
08
#3690000
0!
07
b10 `
b1110101 _
b1110100 ^
1b
b1110101 V
b1110100 T
0&
18
#3700000
08
#3710000
b11 `
11
1c
0b
b1110101 W
b1110100 U
18
#3720000
08
#3730000
1!
17
b1 `
b1110111 I
b1110110 J
b111011 [
1&
b1110101 )
b1110101 e
b1110100 *
b1110100 d
0c
01
18
#3740000
08
#3750000
b10 `
b1110111 _
b1110110 ^
1b
b1110111 V
b1110110 T
0&
0!
07
18
#3760000
08
#3770000
b11 `
11
1c
0b
b1110111 W
b1110110 U
18
#3780000
08
#3790000
b1 `
b1111001 I
b1111000 J
b111100 [
1&
b1110111 )
b1110111 e
b1110110 *
b1110110 d
0c
01
1!
17
18
#3800000
08
#3810000
0!
07
b10 `
b1111001 _
b1111000 ^
1b
b1111001 V
b1111000 T
0&
18
#3820000
08
#3830000
b11 `
11
1c
0b
b1111001 W
b1111000 U
18
#3840000
08
#3850000
1!
17
b1 `
b1111011 I
b1111010 J
b111101 [
1&
b1111001 )
b1111001 e
b1111000 *
b1111000 d
0c
01
18
#3860000
08
#3870000
b10 `
b1111011 _
b1111010 ^
1b
b1111011 V
b1111010 T
0&
0!
07
18
#3880000
08
#3890000
b11 `
11
1c
0b
b1111011 W
b1111010 U
18
#3900000
08
#3910000
b1 `
b1111101 I
b1111100 J
b111110 [
1&
b1111011 )
b1111011 e
b1111010 *
b1111010 d
0c
01
1!
17
18
#3920000
08
#3930000
0!
07
b10 `
b1111101 _
b1111100 ^
1b
b1111101 V
b1111100 T
0&
18
#3940000
08
#3950000
b11 `
11
1c
0b
b1111101 W
b1111100 U
18
#3960000
08
#3970000
1!
17
b1 `
b1111111 I
b1111110 J
b111111 [
1&
b1111101 )
b1111101 e
b1111100 *
b1111100 d
0c
01
18
#3980000
08
#3990000
b10 `
b1111111 _
b1111110 ^
1b
b1111111 V
b1111110 T
0&
0!
07
18
#4000000
08
#4010000
b11 `
11
1c
0b
b1111111 W
b1111110 U
18
#4020000
08
#4030000
b1 `
b10000001 I
b10000000 J
b1000000 [
1&
b1111111 )
b1111111 e
b1111110 *
b1111110 d
0c
01
1!
17
18
#4040000
08
#4050000
0!
07
b10 `
b10000001 _
b10000000 ^
1b
b10000001 V
b10000000 T
0&
18
#4060000
08
#4070000
b11 `
11
1c
0b
b10000001 W
b10000000 U
18
#4080000
08
#4090000
1!
17
b1 `
b10000011 I
b10000010 J
b1000001 [
1&
b10000001 )
b10000001 e
b10000000 *
b10000000 d
0c
01
18
#4100000
08
#4110000
b10 `
b10000011 _
b10000010 ^
1b
b10000011 V
b10000010 T
0&
0!
07
18
#4120000
08
#4130000
b11 `
11
1c
0b
b10000011 W
b10000010 U
18
#4140000
08
#4150000
b1 `
b10000101 I
b10000100 J
b1000010 [
1&
b10000011 )
b10000011 e
b10000010 *
b10000010 d
0c
01
1!
17
18
#4160000
08
#4170000
0!
07
b10 `
b10000101 _
b10000100 ^
1b
b10000101 V
b10000100 T
0&
18
#4180000
08
#4190000
b11 `
11
1c
0b
b10000101 W
b10000100 U
18
#4200000
08
#4210000
1!
17
b1 `
b10000111 I
b10000110 J
b1000011 [
1&
b10000101 )
b10000101 e
b10000100 *
b10000100 d
0c
01
18
#4220000
08
#4230000
b10 `
b10000111 _
b10000110 ^
1b
b10000111 V
b10000110 T
0&
0!
07
18
#4240000
08
#4250000
b11 `
11
1c
0b
b10000111 W
b10000110 U
18
#4260000
08
#4270000
b1 `
b10001001 I
b10001000 J
b1000100 [
1&
b10000111 )
b10000111 e
b10000110 *
b10000110 d
0c
01
1!
17
18
#4280000
08
#4290000
0!
07
b10 `
b10001001 _
b10001000 ^
1b
b10001001 V
b10001000 T
0&
18
#4300000
08
#4310000
b11 `
11
1c
0b
b10001001 W
b10001000 U
18
#4320000
08
#4330000
1!
17
b1 `
b10001011 I
b10001010 J
b1000101 [
1&
b10001001 )
b10001001 e
b10001000 *
b10001000 d
0c
01
18
#4340000
08
#4350000
b10 `
b10001011 _
b10001010 ^
1b
b10001011 V
b10001010 T
0&
0!
07
18
#4360000
08
#4370000
b11 `
11
1c
0b
b10001011 W
b10001010 U
18
#4380000
08
#4390000
b1 `
b10001101 I
b10001100 J
b1000110 [
1&
b10001011 )
b10001011 e
b10001010 *
b10001010 d
0c
01
1!
17
18
#4400000
08
#4410000
0!
07
b10 `
b10001101 _
b10001100 ^
1b
b10001101 V
b10001100 T
0&
18
#4420000
08
#4430000
b11 `
11
1c
0b
b10001101 W
b10001100 U
18
#4440000
08
#4450000
1!
17
b1 `
b10001111 I
b10001110 J
b1000111 [
1&
b10001101 )
b10001101 e
b10001100 *
b10001100 d
0c
01
18
#4460000
08
#4470000
b10 `
b10001111 _
b10001110 ^
1b
b10001111 V
b10001110 T
0&
0!
07
18
#4480000
08
#4490000
b11 `
11
1c
0b
b10001111 W
b10001110 U
18
#4500000
08
#4510000
b1 `
b10010001 I
b10010000 J
b1001000 [
1&
b10001111 )
b10001111 e
b10001110 *
b10001110 d
0c
01
1!
17
18
#4520000
08
#4530000
0!
07
b10 `
b10010001 _
b10010000 ^
1b
b10010001 V
b10010000 T
0&
18
#4540000
08
#4550000
b11 `
11
1c
0b
b10010001 W
b10010000 U
18
#4560000
08
#4570000
1!
17
b1 `
b10010011 I
b10010010 J
b1001001 [
1&
b10010001 )
b10010001 e
b10010000 *
b10010000 d
0c
01
18
#4580000
08
#4590000
b10 `
b10010011 _
b10010010 ^
1b
b10010011 V
b10010010 T
0&
0!
07
18
#4600000
08
#4610000
b11 `
11
1c
0b
b10010011 W
b10010010 U
18
#4620000
08
