examples/block4_coreFFT/tb/tb_complex_fft.vcd
$date
	Sun Jun  7 09:16:09 2026
$end
$version
	Icarus Verilog
$end
$timescale
	1ps
$end
$scope module tb_complex_fft $end
$var wire 1 ! fft_valid_w $end
$var wire 16 " fft_real_w [15:0] $end
$var wire 16 # fft_imag_w [15:0] $end
$var wire 1 $ fft_done_w $end
$var wire 1 % br_ready_w $end
$var parameter 32 & DW $end
$var parameter 32 ' N $end
$var parameter 32 ( TOLERANCE $end
$var reg 16 ) br_imag_r [15:0] $end
$var reg 16 * br_real_r [15:0] $end
$var reg 1 + br_valid_r $end
$var reg 1 , clk $end
$var reg 1 - rst_n $end
$var integer 32 . checks [31:0] $end
$var integer 32 / errors [31:0] $end
$var integer 32 0 i [31:0] $end
$var integer 32 1 k [31:0] $end
$scope module dut $end
$var wire 16 2 br_imag [15:0] $end
$var wire 16 3 br_real [15:0] $end
$var wire 1 + br_valid $end
$var wire 1 , clk $end
$var wire 1 - rst_n $end
$var wire 11 4 tw_addr_recomb [10:0] $end
$var wire 1 5 wm_rd_bank $end
$var wire 32 6 wm_rd_data [31:0] $end
$var wire 16 7 z2_real_w [15:0] $end
$var wire 16 8 z2_imag_w [15:0] $end
$var wire 16 9 z1_real_w [15:0] $end
$var wire 16 : z1_imag_w [15:0] $end
$var wire 1 ; wm_wr_en $end
$var wire 32 < wm_wr_data [31:0] $end
$var wire 10 = wm_wr_addr [9:0] $end
$var wire 10 > wm_rd_addr [9:0] $end
$var wire 32 ? tw_data_recomb [31:0] $end
$var wire 32 @ tw_data_fft_w [31:0] $end
$var wire 10 A tw_addr_fft [9:0] $end
$var wire 1 B sc_wr_en $end
$var wire 32 C sc_wr_data [31:0] $end
$var wire 10 D sc_wr_addr [9:0] $end
$var wire 32 E sc_rd_data_o [31:0] $end
$var wire 32 F sc_rd_data_e [31:0] $end
$var wire 10 G sc_rd_addr_o [9:0] $end
$var wire 10 H sc_rd_addr_e [9:0] $end
$var wire 1 I sc_done $end
$var wire 16 J o_real_w [15:0] $end
$var wire 16 K o_imag_w [15:0] $end
$var wire 16 L e_real_w [15:0] $end
$var wire 16 M e_imag_w [15:0] $end
$var wire 1 N butterfly_en_w $end
$var wire 1 O butterfly_done_w $end
$var parameter 32 P ADDR_WIDTH $end
$var parameter 32 Q DATA_WIDTH $end
$var parameter 128 R FFT_MEM_FILE $end
$var parameter 32 S LOG2_N $end
$var parameter 32 T N_COMPLEX $end
$var parameter 152 U RECOMB_MEM_FILE $end
$var parameter 3 V S_CHECK_STAGE $end
$var parameter 3 W S_IDLE $end
$var parameter 3 X S_INIT_STAGE $end
$var parameter 3 Y S_LOAD_DATA $end
$var parameter 3 Z S_OUTPUT_STREAM $end
$var parameter 3 [ S_PROC_STAGE $end
$var reg 1 \ active_bank $end
$var reg 1 % br_ready $end
$var reg 1 $ fft_done $end
$var reg 16 ] fft_imag [15:0] $end
$var reg 16 ^ fft_real [15:0] $end
$var reg 1 ! fft_valid $end
$var reg 10 _ load_cnt [9:0] $end
$var reg 10 ` load_wr_addr [9:0] $end
$var reg 32 a load_wr_data [31:0] $end
$var reg 1 b load_wr_en $end
$var reg 10 c out_cnt [9:0] $end
$var reg 10 d out_rd_addr [9:0] $end
$var reg 1 e sc_start $end
$var reg 4 f stage_cnt [3:0] $end
$var reg 3 g state [2:0] $end
$scope module u_butterfly $end
$var wire 1 , clk $end
$var wire 1 - rst_n $end
$var wire 16 h tw_imag [15:0] $end
$var wire 16 i tw_real [15:0] $end
$var wire 16 j z2_real_w [15:0] $end
$var wire 16 k z2_imag_w [15:0] $end
$var wire 16 l z1_real_w [15:0] $end
$var wire 16 m z1_imag_w [15:0] $end
$var wire 16 n wo_real_w [15:0] $end
$var wire 16 o wo_imag_w [15:0] $end
$var wire 16 p prod_rr_w [15:0] $end
$var wire 16 q prod_ri_w [15:0] $end
$var wire 16 r prod_ir_w [15:0] $end
$var wire 16 s prod_ii_w [15:0] $end
$var wire 16 t o_real [15:0] $end
$var wire 16 u o_imag [15:0] $end
$var wire 16 v e_real [15:0] $end
$var wire 16 w e_imag [15:0] $end
$var wire 1 N butterfly_en $end
$var parameter 32 x DATA_WIDTH $end
$var parameter 32 y Q15_MAX $end
$var parameter 32 z Q15_MIN $end
$var reg 1 O butterfly_done $end
$var reg 16 { z1_imag [15:0] $end
$var reg 16 | z1_real [15:0] $end
$var reg 16 } z2_imag [15:0] $end
$var reg 16 ~ z2_real [15:0] $end
$scope function add_sat $end
$upscope $end
$scope function mul_q15 $end
$upscope $end
$scope function sub_sat $end
$upscope $end
$upscope $end
$scope module u_stage_ctrl $end
$var wire 1 O butterfly_done $end
$var wire 1 , clk $end
$var wire 1 - rst_n $end
$var wire 4 !" stage [3:0] $end
$var wire 1 e start $end
$var wire 16 "" z1_imag [15:0] $end
$var wire 16 #" z1_real [15:0] $end
$var wire 16 $" z2_imag [15:0] $end
$var wire 16 %" z2_real [15:0] $end
$var wire 10 &" tw_step [9:0] $end
$var wire 32 '" tw_data_fft [31:0] $end
$var wire 10 (" tw_addr_next [9:0] $end
$var wire 10 )" stride [9:0] $end
$var wire 32 *" rd_data_o [31:0] $end
$var wire 32 +" rd_data_e [31:0] $end
$var wire 11 ," num_groups [10:0] $end
$var wire 10 -" group_size [9:0] $end
$var wire 10 ." addr_o_next [9:0] $end
$var wire 10 /" addr_e_next [9:0] $end
$var parameter 32 0" ADDR_WIDTH $end
$var parameter 32 1" DATA_WIDTH $end
$var parameter 32 2" LOG2_N $end
$var parameter 32 3" N_COMPLEX $end
$var parameter 3 4" ST_IDLE $end
$var parameter 3 5" ST_LATCH $end
$var parameter 3 6" ST_READ $end
$var parameter 3 7" ST_WAIT_MAC $end
$var parameter 3 8" ST_WAIT_MEM $end
$var parameter 3 9" ST_WRITE_Z1 $end
$var parameter 3 :" ST_WRITE_Z2 $end
$var reg 10 ;" bf [9:0] $end
$var reg 1 N butterfly_en $end
$var reg 16 <" e_imag [15:0] $end
$var reg 16 =" e_real [15:0] $end
$var reg 10 >" grp [9:0] $end
$var reg 16 ?" o_imag [15:0] $end
$var reg 16 @" o_real [15:0] $end
$var reg 10 A" rd_addr_e [9:0] $end
$var reg 10 B" rd_addr_o [9:0] $end
$var reg 3 C" st [2:0] $end
$var reg 1 I stage_done $end
$var reg 10 D" tw_addr_fft [9:0] $end
$var reg 10 E" wr_addr_z1 [9:0] $end
$var reg 32 F" wr_data_z1 [31:0] $end
$var reg 1 B wr_en $end
$upscope $end
$scope module u_twiddle_rom $end
$var wire 1 , clk $end
$var wire 1 - rst_n $end
$var wire 9 G" tw_addr_fft [8:0] $end
$var wire 11 H" tw_addr_recomb [10:0] $end
$var parameter 32 I" DATA_WIDTH $end
$var parameter 128 J" FFT_MEM_FILE $end
$var parameter 152 K" RECOMB_MEM_FILE $end
$var parameter 32 L" TWIDDLE_FFT_ADDR_W $end
$var parameter 32 M" TWIDDLE_FFT_DEPTH $end
$var parameter 32 N" TWIDDLE_RECOMB_ADDR_W $end
$var parameter 32 O" TWIDDLE_RECOMB_DEPTH $end
$var reg 32 P" tw_data_fft [31:0] $end
$var reg 32 Q" tw_data_recomb [31:0] $end
$upscope $end
$scope module u_working_memory $end
$var wire 1 , clk $end
$var wire 10 R" rd_addr_e [9:0] $end
$var wire 10 S" rd_addr_o [9:0] $end
$var wire 1 5 rd_bank $end
$var wire 10 T" wr_addr [9:0] $end
$var wire 1 \ wr_bank $end
$var wire 32 U" wr_data [31:0] $end
$var wire 1 ; wr_en $end
$var parameter 32 V" ADDR_WIDTH $end
$var parameter 32 W" DATA_WIDTH $end
$var reg 32 X" rd_data_e [31:0] $end
$var reg 32 Y" rd_data_o [31:0] $end
$upscope $end
$upscope $end
$scope begin check_block $end
$var integer 32 Z" err_im [31:0] $end
$var integer 32 [" err_re [31:0] $end
$var integer 32 \" exp_im [31:0] $end
$var integer 32 ]" exp_re [31:0] $end
$var integer 32 ^" got_im [31:0] $end
$var integer 32 _" got_re [31:0] $end
$upscope $end
$upscope $end
$enddefinitions $end
$comment Show the parameter values. $end
$dumpall
b100000 W"
b1010 V"
b10000000001 O"
b1011 N"
b1000000000 M"
b1001 L"
b1110100011101110110100101100100011001000110110001100101011100110101111101110010011001010110001101101111011011010110001000101110011010000110010101111000 K"
b1110100011101110110100101100100011001000110110001100101011100110101111101100110011001100111010000101110011010000110010101111000 J"
b10000 I"
b110 :"
b101 9"
b10 8"
b100 7"
b1 6"
b11 5"
b0 4"
b10000000000 3"
b1010 2"
b10000 1"
b1010 0"
b11111111111111111000000000000000 z
b111111111111111 y
b10000 x
b11 [
b101 Z
b1 Y
b10 X
b0 W
b100 V
b1110100011101110110100101100100011001000110110001100101011100110101111101110010011001010110001101101111011011010110001000101110011010000110010101111000 U
b10000000000 T
b1010 S
b1110100011101110110100101100100011001000110110001100101011100110101111101100110011001100111010000101110011010000110010101111000 R
b10000 Q
b1010 P
b10 (
b10000000000 '
b10000 &
$end
#0
$dumpvars
bx _"
bx ^"
bx ]"
bx \"
bx ["
bx Z"
bx Y"
bx X"
bx U"
bx T"
bx S"
bx R"
bx Q"
bx P"
b0 H"
bx G"
bx F"
bx E"
bx D"
b0 C"
bx B"
bx A"
bx @"
bx ?"
b0 >"
bx ="
bx <"
b0 ;"
b0 /"
b1 ."
b10 -"
b1000000000 ,"
bx +"
bx *"
b1 )"
b0 ("
bx '"
b1000000000 &"
b0 %"
b0 $"
b0 #"
b0 ""
b0 !"
b0 ~
b0 }
b0 |
b0 {
bx w
bx v
bx u
bx t
bx s
bx r
bx q
bx p
bx o
bx n
bx m
bx l
bx k
bx j
bx i
bx h
b0 g
b0 f
0e
b0 d
b0 c
0b
b0 a
b0 `
b0 _
b0 ^
b0 ]
0\
0O
0N
bx M
bx L
bx K
bx J
0I
bx H
bx G
bx F
bx E
bx D
bx C
0B
bx A
bx @
bx ?
bx >
bx =
bx <
0;
b0 :
b0 9
b0 8
b0 7
bx 6
15
b0 4
b0 3
b0 2
b0 1
bx 0
b0 /
b0 .
0-
0,
0+
b0 *
b0 )
1%
0$
b0 #
b0 "
0!
$end
#10000
1,
#20000
0,
#30000
1,
#40000
0,
#50000
1,
#60000
0,
#70000
1,
#80000
0,
#90000
1,
#91000
1-
#100000
0,
#110000
1,
#120000
0,
#130000
1,
#140000
0,
#150000
1,
#160000
0,
#170000
1,
#180000
0,
#190000
b0 0
1,
#200000
0,
#210000
1,
#211000
1+
bx )
bx 2
bx *
bx 3
#220000
0,
#230000
1;
b0 =
b0 T"
b1 g
b1 _
bx a
1b
1,
#231000
0+
b1 0
#240000
0,
#250000
0;
0b
1,
#251000
1+
#260000
0,
#270000
b1 =
b1 T"
1;
b10 _
b1 `
1b
1,
#271000
0+
b10 0
#280000
0,
#290000
0;
0b
1,
#291000
1+
#300000
0,
#310000
b10 =
b10 T"
1;
b11 _
b10 `
1b
1,
#311000
0+
b11 0
#320000
0,
#330000
0;
0b
1,
#331000
1+
#340000
0,
#350000
b11 =
b11 T"
1;
b100 _
b11 `
1b
1,
#351000
0+
b100 0
#360000
0,
#370000
0;
0b
1,
#371000
1+
#380000
0,
#390000
b100 =
b100 T"
1;
b101 _
b100 `
1b
1,
#391000
0+
b101 0
#400000
0,
#410000
0;
0b
1,
#411000
1+
#420000
0,
#430000
b101 =
b101 T"
1;
b110 _
b101 `
1b
1,
#431000
0+
b110 0
#440000
0,
#450000
0;
0b
1,
#451000
1+
#460000
0,
#470000
b110 =
b110 T"
1;
b111 _
b110 `
1b
1,
#471000
0+
b111 0
#480000
0,
#490000
0;
0b
1,
#491000
1+
#500000
0,
#510000
b111 =
b111 T"
1;
b1000 _
b111 `
1b
1,
#511000
0+
b1000 0
#520000
0,
#530000
0;
0b
1,
#531000
1+
#540000
0,
#550000
b1000 =
b1000 T"
1;
b1001 _
b1000 `
1b
1,
#551000
0+
b1001 0
#560000
0,
#570000
0;
0b
1,
#571000
1+
#580000
0,
#590000
b1001 =
b1001 T"
1;
b1010 _
b1001 `
1b
1,
#591000
0+
b1010 0
#600000
0,
#610000
0;
0b
1,
#611000
1+
#620000
0,
#630000
b1010 =
b1010 T"
1;
b1011 _
b1010 `
1b
1,
#631000
0+
b1011 0
#640000
0,
#650000
0;
0b
1,
#651000
1+
#660000
0,
#670000
b1011 =
b1011 T"
1;
b1100 _
b1011 `
1b
1,
#671000
0+
b1100 0
#680000
0,
#690000
0;
0b
1,
#691000
1+
#700000
0,
#710000
b1100 =
b1100 T"
1;
b1101 _
b1100 `
1b
1,
#711000
0+
b1101 0
#720000
0,
#730000
0;
0b
1,
#731000
1+
#740000
0,
#750000
b1101 =
b1101 T"
1;
b1110 _
b1101 `
1b
1,
#751000
0+
b1110 0
#760000
0,
#770000
0;
0b
1,
#771000
1+
#780000
0,
#790000
b1110 =
b1110 T"
1;
b1111 _
b1110 `
1b
1,
#791000
0+
b1111 0
#800000
0,
#810000
0;
0b
1,
#811000
1+
#820000
0,
#830000
b1111 =
b1111 T"
1;
b10000 _
b1111 `
1b
1,
#831000
0+
b10000 0
#840000
0,
#850000
0;
0b
1,
#851000
1+
#860000
0,
#870000
b10000 =
b10000 T"
1;
b10001 _
b10000 `
1b
1,
#871000
0+
b10001 0
#880000
0,
#890000
0;
0b
1,
#891000
1+
#900000
0,
#910000
b10001 =
b10001 T"
1;
b10010 _
b10001 `
1b
1,
#911000
0+
b10010 0
#920000
0,
#930000
0;
0b
1,
#931000
1+
#940000
0,
#950000
b10010 =
b10010 T"
1;
b10011 _
b10010 `
1b
1,
#951000
0+
b10011 0
#960000
0,
#970000
0;
0b
1,
#971000
1+
#980000
0,
#990000
b10011 =
b10011 T"
1;
b10100 _
b10011 `
1b
1,
#991000
0+
b10100 0
#1000000
0,
#1010000
0;
0b
1,
#1011000
1+
#1020000
0,
#1030000
b10100 =
b10100 T"
1;
b10101 _
b10100 `
1b
1,
#1031000
0+
b10101 0
#1040000
0,
#1050000
0;
0b
1,
#1051000
1+
#1060000
0,
#1070000
b10101 =
b10101 T"
1;
b10110 _
b10101 `
1b
1,
#1071000
0+
b10110 0
#1080000
0,
#1090000
0;
0b
1,
#1091000
1+
#1100000
0,
#1110000
b10110 =
b10110 T"
1;
b10111 _
b10110 `
1b
1,
#1111000
0+
b10111 0
#1120000
0,
#1130000
0;
0b
1,
#1131000
1+
#1140000
0,
#1150000
b10111 =
b10111 T"
1;
b11000 _
b10111 `
1b
1,
#1151000
0+
b11000 0
#1160000
0,
#1170000
0;
0b
1,
#1171000
1+
#1180000
0,
#1190000
b11000 =
b11000 T"
1;
b11001 _
b11000 `
1b
1,
#1191000
0+
b11001 0
#1200000
0,
#1210000
0;
0b
1,
#1211000
1+
#1220000
0,
#1230000
b11001 =
b11001 T"
1;
b11010 _
b11001 `
1b
1,
#1231000
0+
b11010 0
#1240000
0,
#1250000
0;
0b
1,
#1251000
1+
#1260000
0,
#1270000
b11010 =
b11010 T"
1;
b11011 _
b11010 `
1b
1,
#1271000
0+
b11011 0
#1280000
0,
#1290000
0;
0b
1,
#1291000
1+
#1300000
0,
#1310000
b11011 =
b11011 T"
1;
b11100 _
b11011 `
1b
1,
#1311000
0+
b11100 0
#1320000
0,
#1330000
0;
0b
1,
#1331000
1+
#1340000
0,
#1350000
b11100 =
b11100 T"
1;
b11101 _
b11100 `
1b
1,
#1351000
0+
b11101 0
#1360000
0,
#1370000
0;
0b
1,
#1371000
1+
#1380000
0,
#1390000
b11101 =
b11101 T"
1;
b11110 _
b11101 `
1b
1,
#1391000
0+
b11110 0
#1400000
0,
#1410000
0;
0b
1,
#1411000
1+
#1420000
0,
#1430000
b11110 =
b11110 T"
1;
b11111 _
b11110 `
1b
1,
#1431000
0+
b11111 0
#1440000
0,
#1450000
0;
0b
1,
#1451000
1+
#1460000
0,
#1470000
b11111 =
b11111 T"
1;
b100000 _
b11111 `
1b
1,
#1471000
0+
b100000 0
#1480000
0,
#1490000
0;
0b
1,
#1491000
1+
#1500000
0,
#1510000
b100000 =
b100000 T"
1;
b100001 _
b100000 `
1b
1,
#1511000
0+
b100001 0
#1520000
0,
#1530000
0;
0b
1,
#1531000
1+
#1540000
0,
#1550000
b100001 =
b100001 T"
1;
b100010 _
b100001 `
1b
1,
#1551000
0+
b100010 0
#1560000
0,
#1570000
0;
0b
1,
#1571000
1+
#1580000
0,
#1590000
b100010 =
b100010 T"
1;
b100011 _
b100010 `
1b
1,
#1591000
0+
b100011 0
#1600000
0,
#1610000
0;
0b
1,
#1611000
1+
#1620000
0,
#1630000
b100011 =
b100011 T"
1;
b100100 _
b100011 `
1b
1,
#1631000
0+
b100100 0
#1640000
0,
#1650000
0;
0b
1,
#1651000
1+
#1660000
0,
#1670000
b100100 =
b100100 T"
1;
b100101 _
b100100 `
1b
1,
#1671000
0+
b100101 0
#1680000
0,
#1690000
0;
0b
1,
#1691000
1+
#1700000
0,
#1710000
b100101 =
b100101 T"
1;
b100110 _
b100101 `
1b
1,
#1711000
0+
b100110 0
#1720000
0,
#1730000
0;
0b
1,
#1731000
1+
#1740000
0,
#1750000
b100110 =
b100110 T"
1;
b100111 _
b100110 `
1b
1,
#1751000
0+
b100111 0
#1760000
0,
#1770000
0;
0b
1,
#1771000
1+
#1780000
0,
#1790000
b100111 =
b100111 T"
1;
b101000 _
b100111 `
1b
1,
#1791000
0+
b101000 0
#1800000
0,
#1810000
0;
0b
1,
#1811000
1+
#1820000
0,
#1830000
b101000 =
b101000 T"
1;
b101001 _
b101000 `
1b
1,
#1831000
0+
b101001 0
#1840000
0,
#1850000
0;
0b
1,
#1851000
1+
#1860000
0,
#1870000
b101001 =
b101001 T"
1;
b101010 _
b101001 `
1b
1,
#1871000
0+
b101010 0
#1880000
0,
#1890000
0;
0b
1,
#1891000
1+
#1900000
0,
#1910000
b101010 =
b101010 T"
1;
b101011 _
b101010 `
1b
1,
#1911000
0+
b101011 0
#1920000
0,
#1930000
0;
0b
1,
#1931000
1+
#1940000
0,
#1950000
b101011 =
b101011 T"
1;
b101100 _
b101011 `
1b
1,
#1951000
0+
b101100 0
#1960000
0,
#1970000
0;
0b
1,
#1971000
1+
#1980000
0,
#1990000
b101100 =
b101100 T"
1;
b101101 _
b101100 `
1b
1,
#1991000
0+
b101101 0
#2000000
0,
#2010000
0;
0b
1,
#2011000
1+
#2020000
0,
#2030000
b101101 =
b101101 T"
1;
b101110 _
b101101 `
1b
1,
#2031000
0+
b101110 0
#2040000
0,
#2050000
0;
0b
1,
#2051000
1+
#2060000
0,
#2070000
b101110 =
b101110 T"
1;
b101111 _
b101110 `
1b
1,
#2071000
0+
b101111 0
#2080000
0,
#2090000
0;
0b
1,
#2091000
1+
#2100000
0,
#2110000
b101111 =
b101111 T"
1;
b110000 _
b101111 `
1b
1,
#2111000
0+
b110000 0
#2120000
0,
#2130000
0;
0b
1,
#2131000
1+
#2140000
0,
#2150000
b110000 =
b110000 T"
1;
b110001 _
b110000 `
1b
1,
#2151000
0+
b110001 0
#2160000
0,
#2170000
0;
0b
1,
#2171000
1+
#2180000
0,
#2190000
b110001 =
b110001 T"
1;
b110010 _
b110001 `
1b
1,
#2191000
0+
b110010 0
#2200000
0,
#2210000
0;
0b
1,
#2211000
1+
#2220000
0,
#2230000
b110010 =
b110010 T"
1;
b110011 _
b110010 `
1b
1,
#2231000
0+
b110011 0
#2240000
0,
#2250000
0;
0b
1,
#2251000
1+
#2260000
0,
#2270000
b110011 =
b110011 T"
1;
b110100 _
b110011 `
1b
1,
#2271000
0+
b110100 0
#2280000
0,
#2290000
0;
0b
1,
#2291000
1+
#2300000
0,
#2310000
b110100 =
b110100 T"
1;
b110101 _
b110100 `
1b
1,
#2311000
0+
b110101 0
#2320000
0,
#2330000
0;
0b
1,
#2331000
1+
#2340000
0,
#2350000
b110101 =
b110101 T"
1;
b110110 _
b110101 `
1b
1,
#2351000
0+
b110110 0
#2360000
0,
#2370000
0;
0b
1,
#2371000
1+
#2380000
0,
#2390000
b110110 =
b110110 T"
1;
b110111 _
b110110 `
1b
1,
#2391000
0+
b110111 0
#2400000
0,
#2410000
0;
0b
1,
#2411000
1+
#2420000
0,
#2430000
b110111 =
b110111 T"
1;
b111000 _
b110111 `
1b
1,
#2431000
0+
b111000 0
#2440000
0,
#2450000
0;
0b
1,
#2451000
1+
#2460000
0,
#2470000
b111000 =
b111000 T"
1;
b111001 _
b111000 `
1b
1,
#2471000
0+
b111001 0
#2480000
0,
#2490000
0;
0b
1,
#2491000
1+
#2500000
0,
#2510000
b111001 =
b111001 T"
1;
b111010 _
b111001 `
1b
1,
#2511000
0+
b111010 0
#2520000
0,
#2530000
0;
0b
1,
#2531000
1+
#2540000
0,
#2550000
b111010 =
b111010 T"
1;
b111011 _
b111010 `
1b
1,
#2551000
0+
b111011 0
#2560000
0,
#2570000
0;
0b
1,
#2571000
1+
#2580000
0,
#2590000
b111011 =
b111011 T"
1;
b111100 _
b111011 `
1b
1,
#2591000
0+
b111100 0
#2600000
0,
#2610000
0;
0b
1,
#2611000
1+
#2620000
0,
#2630000
b111100 =
b111100 T"
1;
b111101 _
b111100 `
1b
1,
#2631000
0+
b111101 0
#2640000
0,
#2650000
0;
0b
1,
#2651000
1+
#2660000
0,
#2670000
b111101 =
b111101 T"
1;
b111110 _
b111101 `
1b
1,
#2671000
0+
b111110 0
#2680000
0,
#2690000
0;
0b
1,
#2691000
1+
#2700000
0,
#2710000
b111110 =
b111110 T"
1;
b111111 _
b111110 `
1b
1,
#2711000
0+
b111111 0
#2720000
0,
#2730000
0;
0b
1,
#2731000
1+
#2740000
0,
#2750000
b111111 =
b111111 T"
1;
b1000000 _
b111111 `
1b
1,
#2751000
0+
b1000000 0
#2760000
0,
#2770000
0;
0b
1,
#2771000
1+
#2780000
0,
#2790000
b1000000 =
b1000000 T"
1;
b1000001 _
b1000000 `
1b
1,
#2791000
0+
b1000001 0
#2800000
0,
#2810000
0;
0b
1,
#2811000
1+
#2820000
0,
#2830000
b1000001 =
b1000001 T"
1;
b1000010 _
b1000001 `
1b
1,
#2831000
0+
b1000010 0
#2840000
0,
#2850000
0;
0b
1,
#2851000
1+
#2860000
0,
#2870000
b1000010 =
b1000010 T"
1;
b1000011 _
b1000010 `
1b
1,
#2871000
0+
b1000011 0
#2880000
0,
#2890000
0;
0b
1,
#2891000
1+
#2900000
0,
#2910000
b1000011 =
b1000011 T"
1;
b1000100 _
b1000011 `
1b
1,
#2911000
0+
b1000100 0
#2920000
0,
#2930000
0;
0b
1,
#2931000
1+
#2940000
0,
#2950000
b1000100 =
b1000100 T"
1;
b1000101 _
b1000100 `
1b
1,
#2951000
0+
b1000101 0
#2960000
0,
#2970000
0;
0b
1,
#2971000
1+
#2980000
0,
#2990000
b1000101 =
b1000101 T"
1;
b1000110 _
b1000101 `
1b
1,
#2991000
0+
b1000110 0
#3000000
0,
#3010000
0;
0b
1,
#3011000
1+
#3020000
0,
#3030000
b1000110 =
b1000110 T"
1;
b1000111 _
b1000110 `
1b
1,
#3031000
0+
b1000111 0
#3040000
0,
#3050000
0;
0b
1,
#3051000
1+
#3060000
0,
#3070000
b1000111 =
b1000111 T"
1;
b1001000 _
b1000111 `
1b
1,
#3071000
0+
b1001000 0
#3080000
0,
#3090000
0;
0b
1,
#3091000
1+
#3100000
0,
#3110000
b1001000 =
b1001000 T"
1;
b1001001 _
b1001000 `
1b
1,
#3111000
0+
b1001001 0
#3120000
0,
#3130000
0;
0b
1,
#3131000
1+
#3140000
0,
#3150000
b1001001 =
b1001001 T"
1;
b1001010 _
b1001001 `
1b
1,
#3151000
0+
b1001010 0
#3160000
0,
#3170000
0;
0b
1,
#3171000
1+
#3180000
0,
#3190000
b1001010 =
b1001010 T"
1;
b1001011 _
b1001010 `
1b
1,
#3191000
0+
b1001011 0
#3200000
0,
#3210000
0;
0b
1,
#3211000
1+
#3220000
0,
#3230000
b1001011 =
b1001011 T"
1;
b1001100 _
b1001011 `
1b
1,
#3231000
0+
b1001100 0
#3240000
0,
#3250000
0;
0b
1,
#3251000
1+
#3260000
0,
#3270000
b1001100 =
b1001100 T"
1;
b1001101 _
b1001100 `
1b
1,
#3271000
0+
b1001101 0
#3280000
0,
#3290000
0;
0b
1,
#3291000
1+
#3300000
0,
#3310000
b1001101 =
b1001101 T"
1;
b1001110 _
b1001101 `
1b
1,
#3311000
0+
b1001110 0
#3320000
0,
#3330000
0;
0b
1,
#3331000
1+
#3340000
0,
#3350000
b1001110 =
b1001110 T"
1;
b1001111 _
b1001110 `
1b
1,
#3351000
0+
b1001111 0
#3360000
0,
#3370000
0;
0b
1,
#3371000
1+
#3380000
0,
#3390000
b1001111 =
b1001111 T"
1;
b1010000 _
b1001111 `
1b
1,
#3391000
0+
b1010000 0
#3400000
0,
#3410000
0;
0b
1,
#3411000
1+
#3420000
0,
#3430000
b1010000 =
b1010000 T"
1;
b1010001 _
b1010000 `
1b
1,
#3431000
0+
b1010001 0
#3440000
0,
#3450000
0;
0b
1,
#3451000
1+
#3460000
0,
#3470000
b1010001 =
b1010001 T"
1;
b1010010 _
b1010001 `
1b
1,
#3471000
0+
b1010010 0
#3480000
0,
#3490000
0;
0b
1,
#3491000
1+
#3500000
0,
#3510000
b1010010 =
b1010010 T"
1;
b1010011 _
b1010010 `
1b
1,
#3511000
0+
b1010011 0
#3520000
0,
#3530000
0;
0b
1,
#3531000
1+
#3540000
0,
#3550000
b1010011 =
b1010011 T"
1;
b1010100 _
b1010011 `
1b
1,
#3551000
0+
b1010100 0
#3560000
0,
#3570000
0;
0b
1,
#3571000
1+
#3580000
0,
#3590000
b1010100 =
b1010100 T"
1;
b1010101 _
b1010100 `
1b
1,
#3591000
0+
b1010101 0
#3600000
0,
#3610000
0;
0b
1,
#3611000
1+
#3620000
0,
#3630000
b1010101 =
b1010101 T"
1;
b1010110 _
b1010101 `
1b
1,
#3631000
0+
b1010110 0
#3640000
0,
#3650000
0;
0b
1,
#3651000
1+
#3660000
0,
#3670000
b1010110 =
b1010110 T"
1;
b1010111 _
b1010110 `
1b
1,
#3671000
0+
b1010111 0
#3680000
0,
#3690000
0;
0b
1,
#3691000
1+
#3700000
0,
#3710000
b1010111 =
b1010111 T"
1;
b1011000 _
b1010111 `
1b
1,
#3711000
0+
b1011000 0
#3720000
0,
#3730000
0;
0b
1,
#3731000
1+
#3740000
0,
#3750000
b1011000 =
b1011000 T"
1;
b1011001 _
b1011000 `
1b
1,
#3751000
0+
b1011001 0
#3760000
0,
#3770000
0;
0b
1,
#3771000
1+
#3780000
0,
#3790000
b1011001 =
b1011001 T"
1;
b1011010 _
b1011001 `
1b
1,
#3791000
0+
b1011010 0
#3800000
0,
#3810000
0;
0b
1,
#3811000
1+
#3820000
0,
#3830000
b1011010 =
b1011010 T"
1;
b1011011 _
b1011010 `
1b
1,
#3831000
0+
b1011011 0
#3840000
0,
#3850000
0;
0b
1,
#3851000
1+
#3860000
0,
#3870000
b1011011 =
b1011011 T"
1;
b1011100 _
b1011011 `
1b
1,
#3871000
0+
b1011100 0
#3880000
0,
#3890000
0;
0b
1,
#3891000
1+
#3900000
0,
#3910000
b1011100 =
b1011100 T"
1;
b1011101 _
b1011100 `
1b
1,
#3911000
0+
b1011101 0
#3920000
0,
#3930000
0;
0b
1,
#3931000
1+
#3940000
0,
#3950000
b1011101 =
b1011101 T"
1;
b1011110 _
b1011101 `
1b
1,
#3951000
0+
b1011110 0
#3960000
0,
#3970000
0;
0b
1,
#3971000
1+
#3980000
0,
#3990000
b1011110 =
b1011110 T"
1;
b1011111 _
b1011110 `
1b
1,
#3991000
0+
b1011111 0
#4000000
0,
#4010000
0;
0b
1,
#4011000
1+
#4020000
0,
#4030000
b1011111 =
b1011111 T"
1;
b1100000 _
b1011111 `
1b
1,
#4031000
0+
b1100000 0
#4040000
0,
#4050000
0;
0b
1,
#4051000
1+
#4060000
0,
#4070000
b1100000 =
b1100000 T"
1;
b1100001 _
b1100000 `
1b
1,
#4071000
0+
b1100001 0
#4080000
0,
#4090000
0;
0b
1,
#4091000
1+
#4100000
0,
#4110000
b1100001 =
b1100001 T"
1;
b1100010 _
b1100001 `
1b
1,
#4111000
0+
b1100010 0
#4120000
0,
#4130000
0;
0b
1,
#4131000
1+
#4140000
0,
#4150000
b1100010 =
b1100010 T"
1;
b1100011 _
b1100010 `
1b
1,
#4151000
0+
b1100011 0
#4160000
0,
#4170000
0;
0b
1,
#4171000
1+
#4180000
0,
#4190000
b1100011 =
b1100011 T"
1;
b1100100 _
b1100011 `
1b
1,
#4191000
0+
b1100100 0
#4200000
0,
#4210000
0;
0b
1,
#4211000
1+
#4220000
0,
#4230000
b1100100 =
b1100100 T"
1;
b1100101 _
b1100100 `
1b
1,
#4231000
0+
b1100101 0
#4240000
0,
#4250000
0;
0b
1,
#4251000
1+
#4260000
0,
#4270000
b1100101 =
b1100101 T"
1;
b1100110 _
b1100101 `
1b
1,
#4271000
0+
b1100110 0
#4280000
0,
#4290000
0;
0b
1,
#4291000
1+
#4300000
0,
#4310000
b1100110 =
b1100110 T"
1;
b1100111 _
b1100110 `
1b
1,
#4311000
0+
b1100111 0
#4320000
0,
#4330000
0;
0b
1,
#4331000
1+
#4340000
0,
#4350000
b1100111 =
b1100111 T"
1;
b1101000 _
b1100111 `
1b
1,
#4351000
0+
b1101000 0
#4360000
0,
#4370000
0;
0b
1,
#4371000
1+
#4380000
0,
#4390000
b1101000 =
b1101000 T"
1;
b1101001 _
b1101000 `
1b
1,
#4391000
0+
b1101001 0
#4400000
0,
#4410000
0;
0b
1,
#4411000
1+
#4420000
0,
#4430000
b1101001 =
b1101001 T"
1;
b1101010 _
b1101001 `
1b
1,
#4431000
0+
b1101010 0
#4440000
0,
#4450000
0;
0b
1,
#4451000
1+
#4460000
0,
